A quick start guide to smartid: Scoring and MARker selection method based on modified Tf-IDf • smartid
…
The score will be transformed using softmax before passing to EM
algorithm.

top_m <- top_markers(
  data = data_sim,
  label = "Group",
  n = Inf # set Inf to get all features processed score
)
top_m
#> # A tibble: 4,000 × 3
#> # Groups:   .dot [4]
#>    .dot   Genes    Scores
#>    <chr>  <chr>     <dbl>
#>  1 Group1 Gene352 0.0216 
#>  2 Group1 Gene696 0.0200 
#>  3 Group1 Gene425 0.0171 
#>  4 Group1 Gene391 0.0160 
#>  5 Group1 Gene225 0.0159 
#>  6 Group1 Gene893 0.0147 
#>  7 Group1 Gene913 0.0113 
#>  8 Group1 Gene650 0.0107 
#>  9 Group1 Gene172 0.00998
#> 10 Group1 Gene547 0.00980
#> # ℹ 3,990 more rows
…
